lab10/simulation/qsim/lab10.msim.vcd
$comment
	File created using the following command:
		vcd file lab10.msim.vcd -direction
$end
$date
	Wed Jul 09 16:19:33 2025
$end
$version
	ModelSim Version 10.1d
$end
$timescale
	1ps
$end
$scope module lab10_vlg_vec_tst $end
$var reg 1 ! clk_in $end
$var reg 1 " rst $end
$var wire 1 # Amarelo $end
$var wire 1 $ tempo [15] $end
$var wire 1 % tempo [14] $end
$var wire 1 & tempo [13] $end
$var wire 1 ' tempo [12] $end
$var wire 1 ( tempo [11] $end
$var wire 1 ) tempo [10] $end
$var wire 1 * tempo [9] $end
$var wire 1 + tempo [8] $end
$var wire 1 , tempo [7] $end
$var wire 1 - tempo [6] $end
$var wire 1 . tempo [5] $end
$var wire 1 / tempo [4] $end
$var wire 1 0 tempo [3] $end
$var wire 1 1 tempo [2] $end
$var wire 1 2 tempo [1] $end
$var wire 1 3 tempo [0] $end
$var wire 1 4 Verde $end
$var wire 1 5 Vermelho $end
$var wire 1 6 sampler $end
$scope module i1 $end
$var wire 1 7 gnd $end
$var wire 1 8 vcc $end
$var wire 1 9 unknown $end
$var tri1 1 : devclrn $end
$var tri1 1 ; devpor $end
$var tri1 1 < devoe $end
$var wire 1 = clk_in~input_o $end
$var wire 1 > clk_in~inputclkctrl_outclk $end
$var wire 1 ? Verde~output_o $end
$var wire 1 @ tempo[15]~output_o $end
$var wire 1 A tempo[14]~output_o $end
$var wire 1 B tempo[13]~output_o $end
$var wire 1 C tempo[12]~output_o $end
$var wire 1 D tempo[11]~output_o $end
$var wire 1 E tempo[10]~output_o $end
$var wire 1 F tempo[9]~output_o $end
$var wire 1 G tempo[8]~output_o $end
$var wire 1 H tempo[7]~output_o $end
$var wire 1 I tempo[6]~output_o $end
$var wire 1 J tempo[5]~output_o $end
$var wire 1 K tempo[4]~output_o $end
$var wire 1 L tempo[3]~output_o $end
$var wire 1 M tempo[2]~output_o $end
$var wire 1 N tempo[1]~output_o $end
$var wire 1 O tempo[0]~output_o $end
$var wire 1 P Vermelho~output_o $end
$var wire 1 Q Amarelo~output_o $end
$var wire 1 R inst|inst|inst2~0_combout $end
$var wire 1 S rst~input_o $end
$var wire 1 T rst~inputclkctrl_outclk $end
$var wire 1 U inst|inst|inst2~q $end
$var wire 1 V inst|inst|inst11|inst~combout $end
$var wire 1 W inst|inst|inst6~q $end
$var wire 1 X inst|inst1|inst4~6_combout $end
$var wire 1 Y inst6|inst~0_combout $end
$var wire 1 Z inst|inst|inst12|inst~combout $end
$var wire 1 [ inst|inst|inst14~q $end
$var wire 1 \ inst|inst1|inst4~0_combout $end
$var wire 1 ] reg2b|mux1|inst2~1_combout $end
$var wire 1 ^ reg2b|f1~q $end
$var wire 1 _ reg2b|mux2|inst2~0_combout $end
$var wire 1 ` reg2b|mux2|inst2~1_combout $end
$var wire 1 a reg2b|ff2~q $end
$var wire 1 b reg2b|mux1|inst2~0_combout $end
$var wire 1 c inst|inst1|inst4~1_combout $end
$var wire 1 d inst|inst1|inst4~2_combout $end
$var wire 1 e inst|inst1|inst4~3_combout $end
$var wire 1 f inst|inst1|inst4~4_combout $end
$var wire 1 g inst|inst1|inst4~5_combout $end
$var wire 1 h inst|inst1|inst4~7_combout $end
$var wire 1 i inst3|inst4~combout $end
$var wire 1 j inst3|inst3~0_combout $end
$upscope $end
$upscope $end
$enddefinitions $end
#0
$dumpvars
0!
1"
0#
13
02
01
00
0/
0.
0-
0,
0+
0*
0)
0(
0'
0&
0%
0$
14
05
x6
07
18
x9
1:
1;
1<
0=
0>
1?
0@
0A
0B
0C
0D
0E
0F
0G
0H
0I
0J
0K
0L
0M
0N
1O
0P
0Q
1R
1S
1T
0U
0V
0W
0X
0Y
0Z
0[
0\
0]
0^
0_
0`
0a
1b
0c
0d
0e
0f
0g
1h
0i
0j
$end
#5000
1!
1=
1>
06
1U
1V
0R
0h
1X
0O
1N
03
12
#10000
0!
0=
0>
16
#15000
1!
1=
1>
06
1W
0U
1R
1g
0X
1M
0N
11
02
#20000
0!
0=
0>
16
#25000
1!
1=
1>
06
1U
1Z
0V
0R
0g
1f
0M
1L
01
10
#30000
0!
0=
0>
16
#35000
1!
1=
1>
06
1[
0W
0U
1R
0f
1e
0L
1K
00
1/
#40000
0!
0=
0>
16
#45000
1!
1=
1>
06
1U
1V
0R
0e
1d
0K
1J
0/
1.
#50000
0!
0=
0>
16
#55000
1!
1=
1>
06
1W
0U
1R
0d
1c
0J
1I
0.
1-
#60000
0!
0=
0>
16
#65000
1!
1=
1>
06
1U
0Z
0V
0R
0c
1\
1]
1Y
0I
1H
0-
1,
#70000
0!
0=
0>
16
#75000
1!
1=
1>
06
1^
0[
0W
0U
0]
0Y
1R
1j
0b
1h
0\
1]
1Q
0?
1O
0H
1#
04
13
0,
#80000
0!
0=
0>
16
#85000
1!
1=
1>
06
1U
1V
0R
0h
1X
1`
1Y
0O
1N
03
12
0V
#90000
0!
0=
0>
16
#95000
1!
1=
1>
06
1a
0U
1_
0Y
1R
0j
1i
1h
0X
0Q
1P
1O
0N
0#
15
13
02
#100000
0!
0=
0>
16
#105000
1!
1=
1>
06
1U
0_
1V
0R
0h
1X
0O
1N
03
12
#110000
0!
0=
0>
16
#115000
1!
1=
1>
06
1W
0U
1_
1R
1g
0X
1M
0N
11
02
#120000
0!
0=
0>
16
#125000
1!
1=
1>
06
1U
1Z
0V
0R
0g
1f
0M
1L
01
10
#130000
0!
0=
0>
16
#135000
1!
1=
1>
06
1[
0W
0U
1R
0f
1e
0L
1K
00
1/
#140000
0!
0=
0>
16
#145000
1!
1=
1>
06
1U
1V
0R
0e
1d
0K
1J
0/
1.
#150000
0!
0=
0>
16
#155000
1!
1=
1>
06
1W
0U
1R
0d
1c
0J
1I
0.
1-
#160000
0!
0=
0>
16
#165000
1!
1=
1>
06
1U
0_
0Z
0V
0R
0c
1\
0`
0]
1Y
0I
1H
0-
1,
#170000
0!
0=
0>
16
#175000
1!
1=
1>
06
0a
0^
0[
0W
0U
1]
1R
0i
1b
1h
0\
0]
0Y
0P
1?
1O
0H
05
14
13
0,
#180000
0!
0=
0>
16
#185000
1!
1=
1>
06
1U
1V
0R
0h
1X
0O
1N
03
12
#190000
0!
0=
0>
16
#195000
1!
1=
1>
06
1W
0U
1R
1g
0X
1M
0N
11
02
#200000
0!
0=
0>
16
#205000
1!
1=
1>
06
1U
1Z
0V
0R
0g
1f
0M
1L
01
10
#210000
0!
0=
0>
16
#215000
1!
1=
1>
06
1[
0W
0U
1R
0f
1e
0L
1K
00
1/
#220000
0!
0=
0>
16
#225000
1!
1=
1>
06
1U
1V
0R
0e
1d
0K
1J
0/
1.
#230000
0!
0=
0>
16
#235000
1!
1=
1>
06
1W
0U
1R
0d
1c
0J
1I
0.
1-
#240000
0!
0=
0>
16
#245000
1!
1=
1>
06
1U
0Z
0V
0R
0c
1\
1]
1Y
0I
1H
0-
1,
#250000
0!
0=
0>
16
#255000
1!
1=
1>
06
1^
0[
0W
0U
0]
0Y
1R
1j
0b
1h
0\
1]
1Q
0?
1O
0H
1#
04
13
0,
#260000
0!
0=
0>
16
#265000
1!
1=
1>
06
1U
1V
0R
0h
1X
1`
1Y
0O
1N
03
12
0V
#270000
0!
0=
0>
16
#275000
1!
1=
1>
06
1a
0U
1_
0Y
1R
0j
1i
1h
0X
0Q
1P
1O
0N
0#
15
13
02
#280000
0!
0=
0>
16
#285000
1!
1=
1>
06
1U
0_
1V
0R
0h
1X
0O
1N
03
12
#290000
0!
0=
0>
16
#295000
1!
1=
1>
06
1W
0U
1_
1R
1g
0X
1M
0N
11
02
#300000
0!
0=
0>
16
#305000
1!
1=
1>
06
1U
1Z
0V
0R
0g
1f
0M
1L
01
10
#310000
0!
0=
0>
16
#315000
1!
1=
1>
06
1[
0W
0U
1R
0f
1e
0L
1K
00
1/
#320000
0!
0=
0>
16
#325000
1!
1=
1>
06
1U
1V
0R
0e
1d
0K
1J
0/
1.
#330000
0!
0=
0>
16
#335000
1!
1=
1>
06
1W
0U
1R
0d
1c
0J
1I
0.
1-
#340000
0!
0=
0>
16
#345000
1!
1=
1>
06
1U
0_
0Z
0V
0R
0c
1\
0`
0]
1Y
0I
1H
0-
1,
#350000
0!
0=
0>
16
#355000
1!
1=
1>
06
0a
0^
0[
0W
0U
1]
1R
0i
1b
1h
0\
0]
0Y
0P
1?
1O
0H
05
14
13
0,
#360000
0!
0=
0>
16
#365000
1!
1=
1>
06
1U
1V
0R
0h
1X
0O
1N
03
12
#370000
0!
0=
0>
16
#375000
1!
1=
1>
06
1W
0U
1R
1g
0X
1M
0N
11
02
#380000
0!
0=
0>
16
#385000
1!
1=
1>
06
1U
1Z
0V
0R
0g
1f
0M
1L
01
10
#390000
0!
0=
0>
16
#395000
1!
1=
1>
06
1[
0W
0U
1R
0f
1e
0L
1K
00
1/
#400000
0!
0=
0>
16
#405000
1!
1=
1>
06
1U
1V
0R
0e
1d
0K
1J
0/
1.
#410000
0!
0=
0>
16
#415000
1!
1=
1>
06
1W
0U
1R
0d
1c
0J
1I
0.
1-
#420000
0!
0=
0>
16
#425000
1!
1=
1>
06
1U
0Z
0V
0R
0c
1\
1]
1Y
0I
1H
0-
1,
#430000
0!
0=
0>
16
#435000
1!
1=
1>
06
1^
0[
0W
0U
0]
0Y
1R
1j
0b
1h
0\
1]
1Q
0?
1O
0H
1#
04
13
0,
#440000
0!
0=
0>
16
#445000
1!
1=
1>
06
1U
1V
0R
0h
1X
1`
1Y
0O
1N
03
12
0V
#450000
0!
0=
0>
16
#455000
1!
1=
1>
06
1a
0U
1_
0Y
1R
0j
1i
1h
0X
0Q
1P
1O
0N
0#
15
13
02
#460000
0!
0=
0>
16
#465000
1!
1=
1>
06
1U
0_
1V
0R
0h
1X
0O
1N
03
12
#470000
0!
0=
0>
16
#475000
1!
1=
1>
06
1W
0U
1_
1R
1g
0X
1M
0N
11
02
#480000
0!
0=
0>
16
#485000
1!
1=
1>
06
1U
1Z
0V
0R
0g
1f
0M
1L
01
10
#490000
0!
0=
0>
16
#495000
1!
1=
1>
06
1[
0W
0U
1R
0f
1e
0L
1K
00
1/
#500000
0!
0=
0>
16
#505000
1!
1=
1>
06
1U
1V
0R
0e
1d
0K
1J
0/
1.
#510000
0!
0=
0>
16
#515000
1!
1=
1>
06
1W
0U
1R
0d
1c
0J
1I
0.
1-
#520000
0!
0=
0>
16
#525000
1!
1=
1>
06
1U
0_
0Z
0V
0R
0c
1\
0`
0]
1Y
0I
1H
0-
1,
#530000
0!
0=
0>
16
#535000
1!
1=
1>
06
0a
0^
0[
0W
0U
1]
1R
0i
1b
1h
0\
0]
0Y
0P
1?
1O
0H
05
14
13
0,
#540000
0!
0=
0>
16
#545000
1!
1=
1>
06
1U
1V
0R
0h
1X
0O
1N
03
12
#550000
0!
0=
0>
16
#555000
1!
1=
1>
06
1W
0U
1R
1g
0X
1M
0N
11
02
#560000
0!
0=
0>
16
#565000
1!
1=
1>
06
1U
1Z
0V
0R
0g
1f
0M
1L
01
10
#570000
0!
0=
0>
16
#575000
1!
1=
1>
06
1[
0W
0U
1R
0f
1e
0L
1K
00
1/
#580000
0!
0=
0>
16
#585000
1!
1=
1>
06
1U
1V
0R
0e
1d
0K
1J
0/
1.
#590000
0!
0=
0>
16
#595000
1!
1=
1>
06
1W
0U
1R
0d
1c
0J
1I
0.
1-
#600000
0!
0=
0>
16
#605000
1!
1=
1>
06
1U
0Z
0V
0R
0c
1\
1]
1Y
0I
1H
0-
1,
#610000
0!
0=
0>
16
#615000
1!
1=
1>
06
1^
0[
0W
0U
0]
0Y
1R
1j
0b
1h
0\
1]
1Q
0?
1O
0H
1#
04
13
0,
#620000
0!
0=
0>
16
#625000
1!
1=
1>
06
1U
1V
0R
0h
1X
1`
1Y
0O
1N
03
12
0V
#630000
0!
0=
0>
16
#635000
1!
1=
1>
06
1a
0U
1_
0Y
1R
0j
1i
1h
0X
0Q
1P
1O
0N
0#
15
13
02
#640000
0!
0=
0>
16
#645000
1!
1=
1>
06
1U
0_
1V
0R
0h
1X
0O
1N
03
12
#650000
0!
0=
0>
16
#655000
1!
1=
1>
06
1W
0U
1_
1R
1g
0X
1M
0N
11
02
#660000
0!
0=
0>
16
#665000
1!
1=
1>
06
1U
1Z
0V
0R
0g
1f
0M
1L
01
10
#670000
0!
0=
0>
16
#675000
1!
1=
1>
06
1[
0W
0U
1R
0f
1e
0L
1K
00
1/
#680000
0!
0=
0>
16
#685000
1!
1=
1>
06
1U
1V
0R
0e
1d
0K
1J
0/
1.
#690000
0!
0=
0>
16
#695000
1!
1=
1>
06
1W
0U
1R
0d
1c
0J
1I
0.
1-
#700000
0!
0=
0>
16
#705000
1!
1=
1>
06
1U
0_
0Z
0V
0R
0c
1\
0`
0]
1Y
0I
1H
0-
1,
#710000
0!
0=
0>
16
#715000
1!
1=
1>
06
0a
0^
0[
0W
0U
1]
1R
0i
1b
1h
0\
0]
0Y
0P
1?
1O
0H
05
14
13
0,
#720000
0!
0=
0>
16
#725000
1!
1=
1>
06
1U
1V
0R
0h
1X
0O
1N
03
12
#730000
0!
0=
0>
16
#735000
1!
1=
1>
06
1W
0U
1R
1g
0X
1M
0N
11
02
#740000
0!
0=
0>
16
#745000
1!
1=
1>
06
1U
1Z
0V
0R
0g
1f
0M
1L
01
10
#750000
0!
0=
0>
16
#755000
1!
1=
1>
06
1[
0W
0U
1R
0f
1e
0L
1K
00
1/
#760000
0!
0=
0>
16
#765000
1!
1=
1>
06
1U
1V
0R
0e
1d
0K
1J
0/
1.
#770000
0!
0=
0>
16
#775000
1!
1=
1>
06
1W
0U
1R
0d
1c
0J
1I
0.
1-
#780000
0!
0=
0>
16
#785000
1!
1=
1>
06
1U
0Z
0V
0R
0c
1\
1]
1Y
0I
1H
0-
1,
#790000
0!
0=
0>
16
#795000
1!
1=
1>
06
1^
0[
0W
0U
0]
0Y
1R
1j
0b
1h
0\
1]
1Q
0?
1O
0H
1#
04
13
0,
#800000
0!
0=
0>
16
#805000
1!
1=
1>
06
1U
1V
0R
0h
1X
1`
1Y
0O
1N
03
12
0V
#810000
0!
0=
0>
16
#815000
1!
1=
1>
06
1a
0U
1_
0Y
1R
0j
1i
1h
0X
0Q
1P
1O
0N
0#
15
13
02
#820000
0!
0=
0>
16
#825000
1!
1=
1>
06
1U
0_
1V
0R
0h
1X
0O
1N
03
12
#830000
0!
0=
0>
16
#835000
1!
1=
1>
06
1W
0U
1_
1R
1g
0X
1M
0N
11
02
#840000
0!
0=
0>
16
#845000
1!
1=
1>
06
1U
1Z
0V
0R
0g
1f
0M
1L
01
10
#850000
0!
0=
0>
16
#855000
1!
1=
1>
06
1[
0W
0U
1R
0f
1e
0L
1K
00
1/
#860000
0!
0=
0>
16
#865000
1!
1=
1>
06
1U
1V
0R
0e
1d
0K
1J
0/
1.
#870000
0!
0=
0>
16
#875000
1!
1=
1>
06
1W
0U
1R
0d
1c
0J
1I
0.
1-
#880000
0!
0=
0>
16
#885000
1!
1=
1>
06
1U
0_
0Z
0V
0R
0c
1\
0`
0]
1Y
0I
1H
0-
1,
#890000
0!
0=
0>
16
#895000
1!
1=
1>
06
0a
0^
0[
0W
0U
1]
1R
0i
1b
1h
0\
0]
0Y
0P
1?
1O
0H
05
14
13
0,
#900000
0!
0=
0>
16
#905000
1!
1=
1>
06
1U
1V
0R
0h
1X
0O
1N
03
12
#910000
0!
0=
0>
16
#915000
1!
1=
1>
06
1W
0U
1R
1g
0X
1M
0N
11
02
#920000
0!
0=
0>
16
#925000
1!
1=
1>
06
1U
1Z
0V
0R
0g
1f
0M
1L
01
10
#930000
0!
0=
0>
16
#935000
1!
1=
1>
06
1[
0W
0U
1R
0f
1e
0L
1K
00
1/
#940000
0!
0=
0>
16
#945000
1!
1=
1>
06
1U
1V
0R
0e
1d
0K
1J
0/
1.
#950000
0!
0=
0>
16
#955000
1!
1=
1>
06
1W
0U
1R
0d
1c
0J
1I
0.
1-
#960000
0!
0=
0>
16
#965000
1!
1=
1>
06
1U
0Z
0V
0R
0c
1\
1]
1Y
0I
1H
0-
1,
#970000
0!
0=
0>
16
#975000
1!
1=
1>
06
1^
0[
0W
0U
0]
0Y
1R
1j
0b
1h
0\
1]
1Q
0?
1O
0H
1#
04
13
0,
#980000
0!
0=
0>
16
#985000
1!
1=
1>
06
1U
1V
0R
0h
1X
1`
1Y
0O
1N
03
12
0V
#990000
0!
0=
0>
16
#995000
1!
1=
1>
06
1a
0U
1_
0Y
1R
0j
1i
1h
0X
0Q
1P
1O
0N
0#
15
13
02
