lab00/FA/simulation/qsim/FA.msim.vcd
$comment
	File created using the following command:
		vcd file FA.msim.vcd -direction
$end
$date
	Wed Mar 26 14:20:49 2025
$end
$version
	ModelSim Version 10.1d
$end
$timescale
	1ps
$end
$scope module FA_vlg_vec_tst $end
$var reg 1 ! A $end
$var reg 1 " B $end
$var reg 1 # Cin $end
$var wire 1 $ Cout $end
$var wire 1 % S $end
$var wire 1 & sampler $end
$scope module i1 $end
$var wire 1 ' gnd $end
$var wire 1 ( vcc $end
$var wire 1 ) unknown $end
$var tri1 1 * devclrn $end
$var tri1 1 + devpor $end
$var tri1 1 , devoe $end
$var wire 1 - S~output_o $end
$var wire 1 . Cout~output_o $end
$var wire 1 / A~input_o $end
$var wire 1 0 B~input_o $end
$var wire 1 1 Cin~input_o $end
$var wire 1 2 XOR2~0_combout $end
$var wire 1 3 OR1~0_combout $end
$upscope $end
$upscope $end
$enddefinitions $end
#0
$dumpvars
0!
0"
0#
0$
0%
x&
0'
1(
x)
1*
1+
1,
0-
0.
0/
00
01
02
03
$end
#10000
1!
1/
0&
12
1-
1%
#60000
0!
0/
1&
02
0-
0%
#70000
1"
10
0&
12
1-
1%
#120000
0"
00
1&
02
0-
0%
#130000
1#
11
0&
12
1-
1%
#190000
0#
01
1&
02
0-
0%
#210000
1!
1"
1/
10
0&
13
1.
1$
#260000
0!
0"
0/
00
1&
03
0.
0$
#280000
1#
1"
11
10
0&
13
1.
1$
#340000
0#
0"
01
00
1&
03
0.
0$
#350000
1!
1/
0&
12
1-
1%
#360000
1#
11
1&
13
02
1.
0-
1$
0%
#410000
0!
0#
0/
01
0&
03
0.
0$
#430000
1"
1!
1#
10
1/
11
1&
13
12
1.
1-
1$
1%
#500000
0"
0!
0#
00
0/
01
0&
03
02
0.
0-
0$
0%
