Neander/simulation/qsim/Neander.msim.vcd
$comment
	File created using the following command:
		vcd file Neander.msim.vcd -direction
$end
$date
	Mon Jul 07 08:37:28 2025
$end
$version
	ModelSim Version 10.1d
$end
$timescale
	1ps
$end
$scope module Neander_vlg_vec_tst $end
$var reg 1 ! clk_in $end
$var reg 1 " rst_in $end
$var reg 1 # run_debug $end
$var reg 1 $ run_sel $end
$var wire 1 % AC_val [7] $end
$var wire 1 & AC_val [6] $end
$var wire 1 ' AC_val [5] $end
$var wire 1 ( AC_val [4] $end
$var wire 1 ) AC_val [3] $end
$var wire 1 * AC_val [2] $end
$var wire 1 + AC_val [1] $end
$var wire 1 , AC_val [0] $end
$var wire 1 - ADD $end
$var wire 1 . AND $end
$var wire 1 / cargaAC $end
$var wire 1 0 cargaNZ $end
$var wire 1 1 cargaPC $end
$var wire 1 2 cargaRDM $end
$var wire 1 3 cargaREM $end
$var wire 1 4 cargaRI $end
$var wire 1 5 goto_t0 $end
$var wire 1 6 incrementaPC $end
$var wire 1 7 instrucoes [15] $end
$var wire 1 8 instrucoes [14] $end
$var wire 1 9 instrucoes [13] $end
$var wire 1 : instrucoes [12] $end
$var wire 1 ; instrucoes [11] $end
$var wire 1 < instrucoes [10] $end
$var wire 1 = instrucoes [9] $end
$var wire 1 > instrucoes [8] $end
$var wire 1 ? instrucoes [7] $end
$var wire 1 @ instrucoes [6] $end
$var wire 1 A instrucoes [5] $end
$var wire 1 B instrucoes [4] $end
$var wire 1 C instrucoes [3] $end
$var wire 1 D instrucoes [2] $end
$var wire 1 E instrucoes [1] $end
$var wire 1 F instrucoes [0] $end
$var wire 1 G NOT $end
$var wire 1 H opcode [7] $end
$var wire 1 I opcode [6] $end
$var wire 1 J opcode [5] $end
$var wire 1 K opcode [4] $end
$var wire 1 L opcode [3] $end
$var wire 1 M opcode [2] $end
$var wire 1 N opcode [1] $end
$var wire 1 O opcode [0] $end
$var wire 1 P OR $end
$var wire 1 Q Read $end
$var wire 1 R sel $end
$var wire 1 S tempo [2] $end
$var wire 1 T tempo [1] $end
$var wire 1 U tempo [0] $end
$var wire 1 V Write $end
$var wire 1 W Y $end
$var wire 1 X sampler $end
$scope module i1 $end
$var wire 1 Y gnd $end
$var wire 1 Z vcc $end
$var wire 1 [ unknown $end
$var tri1 1 \ devclrn $end
$var tri1 1 ] devpor $end
$var tri1 1 ^ devoe $end
$var wire 1 _ inst3|inst39~q $end
$var wire 1 ` inst3|inst39~0_combout $end
$var wire 1 a NZ|inst18~q $end
$var wire 1 b inst|inst41~0_combout $end
$var wire 1 c inst4|inst5|inst5|inst3~0_combout $end
$var wire 1 d inst4|inst17~0_combout $end
$var wire 1 e AC|inst13|inst3~1_combout $end
$var wire 1 f AC|inst9|inst3~3_combout $end
$var wire 1 g inst3|inst31|inst31~combout $end
$var wire 1 h inst3|inst31|inst24~combout $end
$var wire 1 i run_debug~input_o $end
$var wire 1 j run_sel~input_o $end
$var wire 1 k goto_t0~output_o $end
$var wire 1 l Y~output_o $end
$var wire 1 m ADD~output_o $end
$var wire 1 n AND~output_o $end
$var wire 1 o OR~output_o $end
$var wire 1 p NOT~output_o $end
$var wire 1 q AC_val[7]~output_o $end
$var wire 1 r AC_val[6]~output_o $end
$var wire 1 s AC_val[5]~output_o $end
$var wire 1 t AC_val[4]~output_o $end
$var wire 1 u AC_val[3]~output_o $end
$var wire 1 v AC_val[2]~output_o $end
$var wire 1 w AC_val[1]~output_o $end
$var wire 1 x AC_val[0]~output_o $end
$var wire 1 y cargaAC~output_o $end
$var wire 1 z Read~output_o $end
$var wire 1 { cargaREM~output_o $end
$var wire 1 | sel~output_o $end
$var wire 1 } incrementaPC~output_o $end
$var wire 1 ~ cargaPC~output_o $end
$var wire 1 !! cargaNZ~output_o $end
$var wire 1 "! instrucoes[15]~output_o $end
$var wire 1 #! instrucoes[14]~output_o $end
$var wire 1 $! instrucoes[13]~output_o $end
$var wire 1 %! instrucoes[12]~output_o $end
$var wire 1 &! instrucoes[11]~output_o $end
$var wire 1 '! instrucoes[10]~output_o $end
$var wire 1 (! instrucoes[9]~output_o $end
$var wire 1 )! instrucoes[8]~output_o $end
$var wire 1 *! instrucoes[7]~output_o $end
$var wire 1 +! instrucoes[6]~output_o $end
$var wire 1 ,! instrucoes[5]~output_o $end
$var wire 1 -! instrucoes[4]~output_o $end
$var wire 1 .! instrucoes[3]~output_o $end
$var wire 1 /! instrucoes[2]~output_o $end
$var wire 1 0! instrucoes[1]~output_o $end
$var wire 1 1! instrucoes[0]~output_o $end
$var wire 1 2! opcode[7]~output_o $end
$var wire 1 3! opcode[6]~output_o $end
$var wire 1 4! opcode[5]~output_o $end
$var wire 1 5! opcode[4]~output_o $end
$var wire 1 6! opcode[3]~output_o $end
$var wire 1 7! opcode[2]~output_o $end
$var wire 1 8! opcode[1]~output_o $end
$var wire 1 9! opcode[0]~output_o $end
$var wire 1 :! cargaRI~output_o $end
$var wire 1 ;! cargaRDM~output_o $end
$var wire 1 <! Write~output_o $end
$var wire 1 =! tempo[2]~output_o $end
$var wire 1 >! tempo[1]~output_o $end
$var wire 1 ?! tempo[0]~output_o $end
$var wire 1 @! RDM|inst12~0feeder_combout $end
$var wire 1 A! rst_in~input_o $end
$var wire 1 B! rst_in~inputclkctrl_outclk $end
$var wire 1 C! RDM|inst12~0_q $end
$var wire 1 D! RDM|inst14~1_q $end
$var wire 1 E! clk_in~input_o $end
$var wire 1 F! clk_in~inputclkctrl_outclk $end
$var wire 1 G! inst1|inst|inst2~0_combout $end
$var wire 1 H! RDM|inst8~1_q $end
$var wire 1 I! RDM|inst4~1_q $end
$var wire 1 J! inst3|inst34~0_combout $end
$var wire 1 K! RDM|inst~1_q $end
$var wire 1 L! inst3|inst35~0_combout $end
$var wire 1 M! inst3|inst31|inst22~combout $end
$var wire 1 N! inst1|inst|inst4|inst|inst~combout $end
$var wire 1 O! inst1|inst|inst6~q $end
$var wire 1 P! inst1|inst|inst7|inst|inst~combout $end
$var wire 1 Q! inst1|inst|inst14~q $end
$var wire 1 R! inst|inst44~2_combout $end
$var wire 1 S! RDM|inst12~1_q $end
$var wire 1 T! inst3|inst38~0_combout $end
$var wire 1 U! inst3|inst31|inst21~combout $end
$var wire 1 V! inst3|inst38~q $end
$var wire 1 W! inst|inst44~3_combout $end
$var wire 1 X! REM|inst13|inst3~0_combout $end
$var wire 1 Y! inst|inst43~0_combout $end
$var wire 1 Z! DECOD|inst5~4_combout $end
$var wire 1 [! inst|inst38~1_combout $end
$var wire 1 \! inst1|inst1|inst4~0_combout $end
$var wire 1 ]! inst|inst43~combout $end
$var wire 1 ^! REM|inst12~q $end
$var wire 1 _! REM|inst15|inst3~0_combout $end
$var wire 1 `! REM|inst14~q $end
$var wire 1 a! inst2|Mux0_rtl_0|auto_generated|ram_block1a1 $end
$var wire 1 b! RDM|inst12~4_combout $end
$var wire 1 c! inst1|inst1|inst4~2_combout $end
$var wire 1 d! RI|inst12~q $end
$var wire 1 e! DECOD|inst5~3_combout $end
$var wire 1 f! DECOD|inst5~2_combout $end
$var wire 1 g! inst|inst28~0_combout $end
$var wire 1 h! inst|inst34~0_combout $end
$var wire 1 i! inst|inst34~1_combout $end
$var wire 1 j! inst3|inst35~q $end
$var wire 1 k! REM|inst11|inst3~0_combout $end
$var wire 1 l! REM|inst10~q $end
$var wire 1 m! inst2|Mux0_rtl_0|auto_generated|ram_block1a5 $end
$var wire 1 n! RDM|inst~4_combout $end
$var wire 1 o! inst3|inst31|inst17~combout $end
$var wire 1 p! inst3|inst32~q $end
$var wire 1 q! inst3|inst32~0_combout $end
$var wire 1 r! inst3|inst1|inst3~0_combout $end
$var wire 1 s! inst3|inst31|inst28~combout $end
$var wire 1 t! inst3|inst31|inst23~combout $end
$var wire 1 u! inst3|inst34~q $end
$var wire 1 v! REM|inst9|inst3~0_combout $end
$var wire 1 w! REM|inst8~q $end
$var wire 1 x! inst2|Mux0_rtl_0|auto_generated|ram_block1a4 $end
$var wire 1 y! RDM|inst6~1_q $end
$var wire 1 z! RDM|inst6~4_combout $end
$var wire 1 {! inst3|inst37~0_combout $end
$var wire 1 |! inst3|inst31|inst20~combout $end
$var wire 1 }! inst3|inst37~q $end
$var wire 1 ~! REM|inst7|inst3~0_combout $end
$var wire 1 !" REM|inst6~q $end
$var wire 1 "" inst2|Mux0_rtl_0|auto_generated|ram_block1a7 $end
$var wire 1 #" RDM|inst4~4_combout $end
$var wire 1 $" inst3|inst36~0_combout $end
$var wire 1 %" inst3|inst31|inst19~combout $end
$var wire 1 &" inst3|inst36~q $end
$var wire 1 '" REM|inst5|inst3~0_combout $end
$var wire 1 (" REM|inst4~q $end
$var wire 1 )" inst2|Mux0_rtl_0|auto_generated|ram_block1a3 $end
$var wire 1 *" RDM|inst8~4_combout $end
$var wire 1 +" RI|inst8~q $end
$var wire 1 ," DECOD|inst5~9_combout $end
$var wire 1 -" inst1|inst|inst2~q $end
$var wire 1 ." inst|inst41~1_combout $end
$var wire 1 /" RDM|inst12~3feeder_combout $end
$var wire 1 0" RDM|inst12~3_q $end
$var wire 1 1" RDM|inst2~1_q $end
$var wire 1 2" inst2|Mux0_rtl_0|auto_generated|ram_block1a6 $end
$var wire 1 3" RDM|inst2~4_combout $end
$var wire 1 4" REM|inst3|inst3~0_combout $end
$var wire 1 5" REM|inst2~q $end
$var wire 1 6" inst2|Mux0_rtl_0|auto_generated|ram_block1a2 $end
$var wire 1 7" RDM|inst10~1_q $end
$var wire 1 8" RDM|inst10~4_combout $end
$var wire 1 9" RI|inst10~feeder_combout $end
$var wire 1 :" RI|inst10~q $end
$var wire 1 ;" DECOD|inst5~5_combout $end
$var wire 1 <" inst|inst3~combout $end
$var wire 1 =" DECOD|inst5~8_combout $end
$var wire 1 >" DECOD|inst5~1_combout $end
$var wire 1 ?" inst|inst7~combout $end
$var wire 1 @" inst1|inst1|inst4~1_combout $end
$var wire 1 A" Codificador_ULA|inst~combout $end
$var wire 1 B" DECOD|inst5~7_combout $end
$var wire 1 C" Codificador_ULA|inst1~combout $end
$var wire 1 D" inst4|inst5|inst8|inst3~0_combout $end
$var wire 1 E" AC|inst11|inst3~1_combout $end
$var wire 1 F" inst4|inst5|inst5|inst3~1_combout $end
$var wire 1 G" inst4|inst5|inst5|inst3~2_combout $end
$var wire 1 H" inst|inst15~0_combout $end
$var wire 1 I" inst|inst16~combout $end
$var wire 1 J" AC|inst4~q $end
$var wire 1 K" inst4|inst5|inst1|inst3~0_combout $end
$var wire 1 L" inst4|inst5|inst1|inst3~1_combout $end
$var wire 1 M" AC|inst~q $end
$var wire 1 N" inst4|inst|inst1|OR1~0_combout $end
$var wire 1 O" inst4|inst|inst3|XOR2~0_combout $end
$var wire 1 P" inst4|inst|inst3|XOR2~combout $end
$var wire 1 Q" inst4|inst|inst3|OR1~0_combout $end
$var wire 1 R" inst4|inst5|inst7|inst3~0_combout $end
$var wire 1 S" inst4|inst5|inst7|inst3~1_combout $end
$var wire 1 T" inst4|inst5|inst7|inst3~2_combout $end
$var wire 1 U" AC|inst6~q $end
$var wire 1 V" inst4|inst|inst3|OR1~1_combout $end
$var wire 1 W" inst4|inst|inst3|OR1~2_combout $end
$var wire 1 X" AC|inst9|inst3~5_combout $end
$var wire 1 Y" AC|inst9|inst3~2_combout $end
$var wire 1 Z" AC|inst9|inst3~4_combout $end
$var wire 1 [" AC|inst8~q $end
$var wire 1 \" inst4|inst|inst4|OR1~0_combout $end
$var wire 1 ]" AC|inst11|inst3~0_combout $end
$var wire 1 ^" AC|inst11|inst3~2_combout $end
$var wire 1 _" AC|inst10~q $end
$var wire 1 `" inst4|inst|inst5|OR1~0_combout $end
$var wire 1 a" inst4|inst5|inst8|inst3~1_combout $end
$var wire 1 b" inst4|inst5|inst8|inst3~2_combout $end
$var wire 1 c" inst4|inst5|inst8|inst3~3_combout $end
$var wire 1 d" NZ|inst16~q $end
$var wire 1 e" inst|inst38~0_combout $end
$var wire 1 f" inst|inst13~0_combout $end
$var wire 1 g" inst3|inst16|inst3~0_combout $end
$var wire 1 h" inst3|inst~q $end
$var wire 1 i" REM|inst1|inst3~0_combout $end
$var wire 1 j" REM|inst~q $end
$var wire 1 k" inst2|Mux0_rtl_0|auto_generated|ram_block1a0~portadataout $end
$var wire 1 l" RDM|inst14~4_combout $end
$var wire 1 m" RI|inst14~feeder_combout $end
$var wire 1 n" RI|inst14~q $end
$var wire 1 o" inst|inst21~0_combout $end
$var wire 1 p" DECOD|inst5~0_combout $end
$var wire 1 q" inst|inst28~1_combout $end
$var wire 1 r" inst|inst28~2_combout $end
$var wire 1 s" DECOD|inst5~6_combout $end
$var wire 1 t" inst|inst4~combout $end
$var wire 1 u" inst|inst6~combout $end
$var wire 1 v" inst|inst5~combout $end
$var wire 1 w" AC|inst14~q $end
$var wire 1 x" AC|inst13|inst3~0_combout $end
$var wire 1 y" AC|inst13|inst3~2_combout $end
$var wire 1 z" AC|inst12~q $end
$var wire 1 {" inst4|inst5|inst3|inst3~2_combout $end
$var wire 1 |" inst4|inst5|inst3|inst3~0_combout $end
$var wire 1 }" inst4|inst5|inst3|inst3~1_combout $end
$var wire 1 ~" inst4|inst5|inst3|inst3~3_combout $end
$var wire 1 !# AC|inst2~q $end
$var wire 1 "# DECOD|inst5~10_combout $end
$var wire 1 ## DECOD|inst5~11_combout $end
$var wire 1 $# DECOD|inst5~12_combout $end
$var wire 1 %# DECOD|inst5~13_combout $end
$var wire 1 &# DECOD|inst5~14_combout $end
$var wire 1 '# DECOD|inst5~15_combout $end
$var wire 1 (# RI|inst6~feeder_combout $end
$var wire 1 )# RI|inst6~q $end
$var wire 1 *# RI|inst4~feeder_combout $end
$var wire 1 +# RI|inst4~q $end
$var wire 1 ,# RI|inst2~feeder_combout $end
$var wire 1 -# RI|inst2~q $end
$var wire 1 .# RI|inst~feeder_combout $end
$var wire 1 /# RI|inst~q $end
$var wire 1 0# inst|inst~0_combout $end
$var wire 1 1# inst|inst2~combout $end
$var wire 1 2# inst2|Mux0_rtl_0|auto_generated|ram_block1a0_PORTADATAOUT_bus [17] $end
$var wire 1 3# inst2|Mux0_rtl_0|auto_generated|ram_block1a0_PORTADATAOUT_bus [16] $end
$var wire 1 4# inst2|Mux0_rtl_0|auto_generated|ram_block1a0_PORTADATAOUT_bus [15] $end
$var wire 1 5# inst2|Mux0_rtl_0|auto_generated|ram_block1a0_PORTADATAOUT_bus [14] $end
$var wire 1 6# inst2|Mux0_rtl_0|auto_generated|ram_block1a0_PORTADATAOUT_bus [13] $end
$var wire 1 7# inst2|Mux0_rtl_0|auto_generated|ram_block1a0_PORTADATAOUT_bus [12] $end
$var wire 1 8# inst2|Mux0_rtl_0|auto_generated|ram_block1a0_PORTADATAOUT_bus [11] $end
$var wire 1 9# inst2|Mux0_rtl_0|auto_generated|ram_block1a0_PORTADATAOUT_bus [10] $end
$var wire 1 :# inst2|Mux0_rtl_0|auto_generated|ram_block1a0_PORTADATAOUT_bus [9] $end
$var wire 1 ;# inst2|Mux0_rtl_0|auto_generated|ram_block1a0_PORTADATAOUT_bus [8] $end
$var wire 1 <# inst2|Mux0_rtl_0|auto_generated|ram_block1a0_PORTADATAOUT_bus [7] $end
$var wire 1 =# inst2|Mux0_rtl_0|auto_generated|ram_block1a0_PORTADATAOUT_bus [6] $end
$var wire 1 ># inst2|Mux0_rtl_0|auto_generated|ram_block1a0_PORTADATAOUT_bus [5] $end
$var wire 1 ?# inst2|Mux0_rtl_0|auto_generated|ram_block1a0_PORTADATAOUT_bus [4] $end
$var wire 1 @# inst2|Mux0_rtl_0|auto_generated|ram_block1a0_PORTADATAOUT_bus [3] $end
$var wire 1 A# inst2|Mux0_rtl_0|auto_generated|ram_block1a0_PORTADATAOUT_bus [2] $end
$var wire 1 B# inst2|Mux0_rtl_0|auto_generated|ram_block1a0_PORTADATAOUT_bus [1] $end
$var wire 1 C# inst2|Mux0_rtl_0|auto_generated|ram_block1a0_PORTADATAOUT_bus [0] $end
$upscope $end
$upscope $end
$enddefinitions $end
#0
$dumpvars
0!
0"
0#
0$
x,
x+
x*
x)
x(
x'
x&
x%
x-
x.
x/
x0
x1
x2
x3
x4
x5
x6
xF
xE
xD
xC
xB
xA
x@
x?
x>
x=
x<
x;
x:
x9
x8
x7
xG
xO
xN
xM
xL
xK
xJ
xI
xH
xP
xQ
xR
xU
xT
xS
xV
xW
xX
0Y
1Z
x[
1\
1]
1^
0_
x`
0a
xb
xc
xd
xe
xf
xg
xh
0i
0j
xk
xl
xm
xn
xo
xp
xq
xr
xs
xt
xu
xv
xw
xx
xy
xz
x{
x|
x}
x~
x!!
x"!
x#!
x$!
x%!
x&!
x'!
x(!
x)!
x*!
x+!
x,!
x-!
x.!
x/!
x0!
x1!
x2!
x3!
x4!
x5!
x6!
x7!
x8!
x9!
x:!
x;!
x<!
x=!
x>!
x?!
1@!
0A!
xB!
0C!
0D!
0E!
xF!
1G!
0H!
0I!
xJ!
0K!
xL!
xM!
xN!
0O!
xP!
0Q!
xR!
0S!
xT!
xU!
0V!
xW!
xX!
xY!
xZ!
x[!
x\!
x]!
0^!
x_!
0`!
0a!
xb!
xc!
0d!
xe!
xf!
xg!
xh!
xi!
0j!
xk!
0l!
0m!
xn!
xo!
0p!
xq!
xr!
xs!
xt!
0u!
xv!
0w!
0x!
0y!
xz!
x{!
x|!
0}!
x~!
0!"
0""
x#"
x$"
x%"
0&"
x'"
0("
0)"
x*"
0+"
x,"
0-"
x."
x/"
00"
01"
02"
x3"
x4"
05"
06"
07"
x8"
x9"
0:"
x;"
x<"
x="
x>"
x?"
x@"
xA"
0B"
xC"
xD"
xE"
xF"
xG"
xH"
xI"
0J"
xK"
xL"
0M"
xN"
xO"
xP"
xQ"
xR"
xS"
xT"
0U"
xV"
xW"
xX"
xY"
xZ"
0["
x\"
x]"
x^"
0_"
x`"
xa"
xb"
xc"
0d"
xe"
xf"
xg"
0h"
xi"
0j"
0k"
xl"
xm"
0n"
xo"
xp"
xq"
xr"
xs"
xt"
xu"
xv"
0w"
xx"
xy"
0z"
x{"
x|"
x}"
x~"
0!#
x"#
x##
x$#
x%#
x&#
x'#
x(#
0)#
x*#
0+#
x,#
0-#
x.#
0/#
x0#
x1#
0C#
0B#
0A#
0@#
0?#
0>#
0=#
0<#
0;#
0:#
09#
08#
07#
06#
05#
04#
03#
02#
$end
#367
0F!
0B!
#438
0t"
#442
0P!
#488
0l"
#507
0*"
#508
0&#
#509
0b!
#513
0>"
#514
0f!
#515
0##
#590
0<"
0c!
#592
0@"
#594
01#
#595
00#
#641
0="
#647
0$#
#713
0Q"
#715
08"
#750
03"
#754
0#"
#755
0u"
#762
0n!
#774
0."
#780
0N!
#787
0H"
#791
0|"
#795
0o"
#798
1e"
#804
0Z!
#813
0e!
#855
0J!
#857
0T!
#957
0W!
#965
0z!
#976
0v"
#983
0`
#984
1,"
0s"
0'#
#986
0%#
#1055
0N"
#1061
0?"
#1065
0L!
#1072
0"#
#1087
0X!
#1099
0q!
#1115
0/"
#1117
1Y!
#1121
0\!
#1132
0$"
#1135
0*#
#1142
0v!
#1159
0;"
#1161
1p"
#1242
1[!
#1246
0_!
#1255
0r!
#1272
0R!
#1294
0k!
#1385
0,#
#1412
0M!
#1422
0a"
#1437
0f"
#1463
0O"
#1464
0W"
#1476
0V"
#1496
0m"
#1497
09"
#1526
0'"
#1528
0I"
#1539
0i"
#1541
0g
0A"
#1558
0\"
#1576
0U!
#1582
1g!
#1599
0h!
#1621
0{!
#1635
0.#
0(#
#1672
0s!
#1675
1]!
#1678
04"
#1703
0C"
#1723
0`"
#1724
0q"
#1731
0o!
#1742
0~!
#1761
0%"
#1793
0X"
#1847
0b
#1856
0h
#1912
0P"
#1915
0i!
#2180
0E"
#2233
0|!
#2262
0g"
#2267
0]"
#2277
0c
#2429
0K"
#2432
0x"
#2471
0F"
#2530
0f
#2539
0t!
#2585
0^"
#2594
0R"
#2708
1D"
#2743
0r"
#2745
0Y"
#2746
0L"
#2748
0y"
#2803
0e
#2826
0}"
#2830
0{"
#2868
0G"
#2912
0S"
#3063
0Z"
#3127
0b"
#3228
0T"
#3272
0~"
#3446
0c"
#3667
0?!
0U
#3686
07!
0M
#3696
0>!
0T
#3756
0r
0&
#3773
1d
#3940
0l
0W
#4098
0,!
0A
#4119
0:!
04
#4148
0x
0,
#4164
0'!
0<
#4301
0%!
0:
#4327
08!
0N
#4349
05!
0K
#4377
0s
0m
0'
0-
#4389
0v
0*
#4398
09!
0O
#4411
0=!
0S
#4431
04!
0J
#4497
06!
0L
#4515
0&!
0;
#4534
0*!
0?
#4554
00!
0E
#4576
0q
0%
#4664
0;!
02
#4681
0w
0+
#4698
0u
0)
#4737
02!
0H
#4754
0z
0Q
#4810
0"!
07
#4837
0)!
0>
#4945
0+!
0@
#5000
1!
0X
#5080
0<!
0V
#5093
0~
01
#5110
0t
0(
#5167
0/!
0D
#5200
03!
0I
#5247
0|
0R
#5263
11!
1F
#5357
0$!
09
#5384
0.!
0C
#5402
0#!
08
#5493
0p
0G
#5497
1E!
#5559
0}
06
#5577
0o
0P
#5855
0(!
0=
#5877
1F!
#5956
1{
13
#6168
0n
0.
#6648
0-!
0B
#6670
0y
0/
#6680
0!!
00
#7368
0k
05
#7716
1-"
#7738
1C!
#8085
0G!
#8103
1a
#8389
1."
#8394
1N!
#8716
1/"
#8769
0Y!
#9244
1h!
#9372
0]!
#9546
1i!
#9878
1g"
#10000
0!
1X
#10310
1A#
16"
#10671
0E!
#11038
0F!
#11444
1?!
1U
#12425
1z
1Q
#13286
1}
16
#13578
0{
03
#15000
1!
0X
#15497
1E!
#15877
1F!
#17716
1O!
0-"
10"
#17738
1h"
#18069
1G!
#18085
0N!
#18087
0."
#18094
1P!
#18107
0g"
#18362
1i"
#18428
0/"
#18430
0P!
#18488
1N!
#18621
1r!
#18623
1o!
#18649
1c!
#18734
18"
#19102
0h!
#19418
0i!
#19504
19"
#19775
1g"
#19815
1^"
#20000
0!
1X
#20671
0E!
#21038
0F!
#21383
0?!
0U
#21466
1>!
1T
#22067
0z
0Q
#22267
1:!
14
#23062
0}
06
#25000
1!
0X
#25497
1E!
#25877
1F!
#27716
1-"
00"
#27731
1:"
#27738
17"
#28085
0G!
#28160
1o"
#28333
1P!
#28402
0N!
#28417
1H"
#28605
0c!
#28741
1\!
#28836
1;"
#28850
0p"
#28893
1b
#29058
1]!
#29313
1q"
#29555
0q"
#29732
1r"
#30000
0!
1X
#30001
0r"
#30671
0E!
#31038
0F!
#31444
1?!
1U
#32108
14!
1J
#32134
0:!
04
#32841
01!
0F
#32900
1/!
1D
#33339
1{
13
#35000
1!
0X
#35497
1E!
#35877
1F!
#37716
0O!
1Q!
0-"
#37738
1j"
#38069
1G!
1N!
#38482
1."
#38496
0N!
#38619
0\!
#38809
1/"
#38957
0]!
#39175
1R!
#39600
1i!
#39922
0g"
#40000
0!
1X
#40671
0E!
#41038
0F!
#41383
0?!
0U
#41412
0>!
0T
#42180
1=!
1S
#42518
1z
1Q
#43163
0{
03
#43340
1}
16
#45000
1!
0X
#45497
1E!
#45877
1F!
#47716
1-"
10"
#47733
1p!
#47738
0h"
#48085
0G!
#48086
1q!
#48091
1g"
#48394
1N!
#48397
0."
#48410
1%"
#48451
0i"
#48663
0r!
#48710
1W!
#48737
14"
#48738
0/"
#48753
1Y!
#49131
0%"
#49245
0i!
#49311
1]!
#49592
0g"
#49736
04"
#49743
1k!
#50000
0!
1X
#50310
1C#
0A#
1k"
06"
#50671
0E!
#50784
1l"
#51025
08"
#51038
0F!
#51444
1?!
1U
#51498
0D"
#51512
1_!
#51604
0k!
#51785
1m"
#51807
09"
#51946
1b"
#52124
0^"
#52250
1c"
#52377
0z
0Q
#52889
0}
06
#53089
1|
1R
#53592
1{
13
#55000
1!
0X
#55497
1E!
#55877
1F!
#57716
1O!
0-"
00"
#57738
0j"
07"
1`!
1D!
#58069
1G!
#58084
0P!
#58085
0N!
#58103
1d"
#58253
1@"
#58426
1P!
#58482
1."
#58488
1N!
#58649
0@"
#58718
1r"
#58719
1I"
#58736
0W!
#58776
0Y!
#58809
1/"
#59102
0R!
#59126
0r"
#59128
0I"
#59303
1i!
#59379
0]!
#59556
0i!
#59635
1g"
#59815
14"
#59903
0g"
#60000
0!
1X
#60033
0_!
#60671
0E!
#61038
0F!
#61383
0?!
0U
#61466
1>!
1T
#62518
1z
1Q
#63026
0|
0R
#63585
0{
03
#65000
1!
0X
#65497
1E!
#65877
1F!
#67716
1-"
10"
#68085
0G!
#68124
1<"
#68337
0P!
#68397
0."
#68402
0N!
#68603
1@"
#68738
0/"
#69068
1r"
#69069
1I"
#70000
0!
1X
#70310
0C#
1?#
1=#
0k"
1x!
12"
#70671
0E!
#70798
0l"
#71038
0F!
#71043
13"
#71246
1z!
#71444
1?!
1U
#71543
1D"
#71567
1l
1W
#71655
1,#
#71714
1O"
#71757
1V"
#71791
0c"
#71806
0m"
#71921
1(#
#71962
0b"
#72002
1T"
#72022
1~"
#72160
1P"
#72377
0z
0Q
#72417
0d
#72578
1R"
#72882
1S"
#73771
1k
15
#74318
1y
1/
#74328
1!!
10
#75000
1!
0X
#75497
1E!
#75877
1F!
#77716
0O!
0Q!
0-"
00"
#77733
11"
1y!
#77738
0D!
#78069
1G!
#78075
1!#
#78076
1U"
#78306
0<"
#78308
0@"
#78725
1Q"
#78728
1X"
#78732
1}"
#78785
0r"
#78787
0I"
#78833
1Y!
#78889
0P"
#79031
1Y"
#79058
1N"
#79333
0R"
#79335
1Z"
#79391
1]!
#79574
0~"
#79639
1c
#79651
0S"
#79967
0T"
#80000
0!
1X
#80200
1G"
#80409
1d
#80671
0E!
#80778
0d
#81038
0F!
#81383
0?!
0U
#81412
0>!
0T
#81656
0l
0W
#82127
0=!
0S
#82764
1w
1+
#82862
1u
1)
#83410
0k
05
#83672
1{
13
#83929
0y
0/
#83939
0!!
00
#85000
1!
0X
#85497
1E!
#85877
1F!
#87716
1-"
#87738
15"
0`!
#88085
0G!
#88103
0a
0d"
#88389
1."
#88394
1N!
#88716
1/"
#88769
0Y!
#89244
1h!
#89372
0]!
#89546
1i!
#89878
1g"
#90000
0!
1X
#90671
0E!
#91038
0F!
#91444
1?!
1U
#92425
1z
1Q
#93286
1}
16
#93578
0{
03
#95000
1!
0X
#95497
1E!
#95877
1F!
#97716
1O!
0-"
10"
#97738
1h"
#98069
1G!
#98085
0N!
#98087
0."
#98094
1P!
#98107
0g"
#98362
1i"
#98428
0/"
#98430
0P!
#98488
1N!
#98621
1r!
#98622
0o!
#98649
1c!
#99052
1%"
#99102
0h!
#99418
0i!
#99775
1g"
#100000
0!
1X
#100310
1B#
1A#
0?#
0=#
1a!
16"
0x!
02"
#100671
0E!
#100802
1b!
#100983
18"
#101038
0F!
#101060
03"
#101275
0z!
#101383
0?!
0U
#101408
0N"
#101466
1>!
1T
#101686
1y"
#101695
0,#
#101753
19"
#101773
0O"
#101786
0Q"
#101945
0(#
#101996
0c
#102056
1~"
0X"
#102064
1^"
#102067
0z
0Q
#102232
1P"
#102267
1:!
14
#102372
0Y"
#102587
0G"
#102650
1R"
#102690
0Z"
#102954
1S"
#103062
0}
06
#103256
1T"
#105000
1!
0X
#105497
1E!
#105877
1F!
#107716
1-"
00"
#107731
1d!
#107733
01"
0y!
#107738
17"
1S!
#108085
0G!
#108271
0H"
#108272
0o"
#108333
1P!
#108364
1>"
#108402
0N!
#108605
0c!
#108741
1\!
#108763
0b
#108799
0;"
#108842
1?"
#109291
1A"
#109312
1I"
#109313
1q"
#109433
1C"
#109732
1r"
#109881
1E"
#110000
0!
1X
#110154
0S"
#110184
1F"
#110231
1f
#110253
1{"
#110296
1b"
#110469
1c
#110470
0T"
#110493
1e
#110510
1K"
#110513
1x"
#110600
1c"
#110668
0~"
#110671
0E!
#110684
0P!
#110813
1L"
#110934
1Z"
#111030
1G"
#111038
0F!
#111169
1d
#111444
1?!
1U
#111608
0d
#112134
0:!
04
#112807
0/!
0D
#112824
1+!
1@
#112965
13!
1I
#113312
1p
1G
#114435
1k
15
#114561
1y
1/
#114571
1!!
10
#115000
1!
0X
#115497
1E!
#115877
1F!
#117716
0O!
0-"
#118069
1G!
#118075
1M"
1w"
1z"
0!#
#118076
1J"
0U"
1["
#118078
1_"
#118580
1Y"
#118710
1]"
#118744
0x"
#118777
0?"
#118791
0V"
#118808
0}"
#118832
0D"
#118833
1Y!
#118837
0\!
#118840
1a"
#118844
0c
#118856
0K"
#118874
0Z"
#118923
1S"
#118938
1`"
#118955
0P"
#119004
0^"
#119060
0y"
#119138
1~"
#119173
0L"
#119225
1T"
#119257
0A"
#119279
0b"
#119391
1]!
#119419
0C"
#119435
0G"
#119440
0q"
#119460
0I"
#119598
0c"
#119842
0E"
#119886
0r"
#120000
0!
1X
#120143
1}"
#120145
0e
#120286
0F"
#120310
0R"
#120312
0f
#120438
0~"
#120487
1c
#120541
1K"
#120542
0}"
#120546
0{"
#120628
0S"
#120671
0E!
#120724
1y"
#120844
1L"
#120944
0T"
#121038
0F!
#121040
1Z"
#121048
1G"
#121383
0?!
0U
#121412
0>!
0T
#121882
1r
1&
#122219
1x
1,
#122463
1s
1v
1'
1*
#122663
1q
1%
#122756
0w
0+
#122774
0u
0)
#123209
0p
0G
#123228
1t
1(
#123672
1{
13
#124511
0k
05
#124602
0y
0/
#124612
0!!
00
#125000
1!
0X
#125497
1E!
#125877
1F!
#127716
1-"
#127738
1j"
#128085
0G!
#128389
1."
#128394
1N!
#128716
1/"
#128769
0Y!
#129244
1h!
#129372
0]!
#129546
1i!
#129868
0g"
#130000
0!
1X
#130671
0E!
#131038
0F!
#131444
1?!
1U
#132425
1z
1Q
