lab07/lab07/simulation/qsim/lab07.msim.vcd
$comment
	File created using the following command:
		vcd file lab07.msim.vcd -direction
$end
$date
	Thu May 29 11:18:09 2025
$end
$version
	ModelSim Version 10.1d
$end
$timescale
	1ps
$end
$scope module lab07_vlg_vec_tst $end
$var reg 1 ! clk $end
$var reg 1 " D $end
$var wire 1 # Q $end
$var wire 1 $ sampler $end
$scope module i1 $end
$var wire 1 % gnd $end
$var wire 1 & vcc $end
$var wire 1 ' unknown $end
$var tri1 1 ( devclrn $end
$var tri1 1 ) devpor $end
$var tri1 1 * devoe $end
$var wire 1 + Q~output_o $end
$var wire 1 , D~input_o $end
$var wire 1 - clk~input_o $end
$var wire 1 . inst|inst2~1_combout $end
$upscope $end
$upscope $end
$enddefinitions $end
#0
$dumpvars
0!
0"
x#
x$
0%
1&
x'
1(
1)
1*
x+
0,
0-
x.
$end
#60000
1!
1"
0$
#60507
1,
#60537
1-
#61987
1.
#64113
0.
#67549
1+
1#
#90000
0"
1$
#90681
0,
#94534
1.
#98112
0+
0#
#120000
0!
0$
#120711
0-
#140000
1"
1$
#140507
1,
#160000
0"
0$
#160681
0,
#180000
1!
1$
#180537
1-
#220000
1"
0$
#220507
1,
#224113
0.
#227549
1+
1#
#240000
0!
1$
#240711
0-
#280000
0"
0$
#280681
0,
