lab04/simulation/qsim/UnidadeAritmetica.msim.vcd
$comment
	File created using the following command:
		vcd file UnidadeAritmetica.msim.vcd -direction
$end
$date
	Wed Apr 16 23:20:38 2025
$end
$version
	ModelSim Version 10.1d
$end
$timescale
	1ps
$end
$scope module UnidadeAritmetica_vlg_vec_tst $end
$var reg 4 ! A [3:0] $end
$var reg 4 " B [3:0] $end
$var reg 2 # op_sel [1:0] $end
$var wire 1 $ S [7] $end
$var wire 1 % S [6] $end
$var wire 1 & S [5] $end
$var wire 1 ' S [4] $end
$var wire 1 ( S [3] $end
$var wire 1 ) S [2] $end
$var wire 1 * S [1] $end
$var wire 1 + S [0] $end
$var wire 1 , sampler $end
$scope module i1 $end
$var wire 1 - gnd $end
$var wire 1 . vcc $end
$var wire 1 / unknown $end
$var tri1 1 0 devclrn $end
$var tri1 1 1 devpor $end
$var tri1 1 2 devoe $end
$var wire 1 3 inst3|inst13|XOR2~combout $end
$var wire 1 4 inst3|inst14|OR1~0_combout $end
$var wire 1 5 inst3|inst26~combout $end
$var wire 1 6 inst8|inst|inst5~0_combout $end
$var wire 1 7 inst3|inst12|OR1~3_combout $end
$var wire 1 8 op_sel[0]~input_o $end
$var wire 1 9 S[7]~output_o $end
$var wire 1 : S[6]~output_o $end
$var wire 1 ; S[5]~output_o $end
$var wire 1 < S[4]~output_o $end
$var wire 1 = S[3]~output_o $end
$var wire 1 > S[2]~output_o $end
$var wire 1 ? S[1]~output_o $end
$var wire 1 @ S[0]~output_o $end
$var wire 1 A B[1]~input_o $end
$var wire 1 B inst3|inst20~combout $end
$var wire 1 C B[0]~input_o $end
$var wire 1 D A[1]~input_o $end
$var wire 1 E inst3|inst12|OR1~9_combout $end
$var wire 1 F A[2]~input_o $end
$var wire 1 G inst3|inst17~combout $end
$var wire 1 H inst3|inst13|OR1~0_combout $end
$var wire 1 I B[2]~input_o $end
$var wire 1 J inst3|inst25~combout $end
$var wire 1 K inst3|inst22|OR1~0_combout $end
$var wire 1 L inst3|inst27|OR1~0_combout $end
$var wire 1 M A[3]~input_o $end
$var wire 1 N B[3]~input_o $end
$var wire 1 O inst3|inst34|OR1~0_combout $end
$var wire 1 P op_sel[1]~input_o $end
$var wire 1 Q inst5|inst10|inst1~combout $end
$var wire 1 R inst3|inst27|XOR1~combout $end
$var wire 1 S inst3|inst29|OR1~3_combout $end
$var wire 1 T inst3|inst29|OR1~2_combout $end
$var wire 1 U inst3|inst33~combout $end
$var wire 1 V inst5|inst9|inst1~combout $end
$var wire 1 W inst3|inst22|XOR2~combout $end
$var wire 1 X inst3|inst12|XOR2~4_combout $end
$var wire 1 Y inst3|inst12|XOR2~5_combout $end
$var wire 1 Z inst3|inst24~combout $end
$var wire 1 [ A[0]~input_o $end
$var wire 1 \ inst3|inst23~combout $end
$var wire 1 ] inst3|inst14|XOR2~combout $end
$var wire 1 ^ inst3|inst30~combout $end
$var wire 1 _ inst3|inst28|OR1~0_combout $end
$var wire 1 ` inst3|inst29|XOR2~0_combout $end
$var wire 1 a inst5|inst8|inst1~combout $end
$var wire 1 b inst3|inst11|inst~combout $end
$var wire 1 c inst3|inst31~combout $end
$var wire 1 d inst5|inst7|inst1~combout $end
$var wire 1 e inst|inst3|XOR2~0_combout $end
$var wire 1 f inst5|inst6|inst3~3_combout $end
$var wire 1 g inst5|inst6|inst3~2_combout $end
$var wire 1 h inst5|inst5|inst3~0_combout $end
$var wire 1 i inst5|inst5|inst3~1_combout $end
$var wire 1 j inst5|inst4|inst3~4_combout $end
$var wire 1 k inst5|inst4|inst3~5_combout $end
$var wire 1 l inst5|inst|inst3~0_combout $end
$upscope $end
$upscope $end
$enddefinitions $end
#0
$dumpvars
b0 !
b0 "
b0 #
0+
0*
0)
0(
0'
0&
0%
0$
x,
0-
1.
x/
10
11
12
03
04
05
06
07
08
09
0:
0;
0<
0=
0>
0?
0@
0A
0B
0C
0D
0E
0F
0G
0H
0I
0J
0K
0L
0M
0N
0O
0P
0Q
0R
0S
0T
0U
0V
0W
0X
0Y
0Z
0[
0\
0]
0^
0_
0`
0a
0b
0c
0d
0e
0f
0g
0h
0i
0j
0k
0l
$end
#10000
b100 !
b100 "
1I
1F
0,
1e
1J
17
1W
1g
1=
1(
#40000
b1 #
18
1,
#80000
b0 !
b0 "
b0 #
08
0I
0F
0,
0e
0J
07
0W
0g
0=
0(
#100000
b1000 !
b1000 "
1N
1M
1,
1U
1e
1g
1=
1(
0g
0=
0(
#130000
b1 #
18
0,
#150000
b0 !
b0 "
b0 #
08
0N
0M
1,
0U
0e
1g
1=
1(
0g
0=
0(
#180000
b10 !
b10 #
b100 "
1I
1P
1D
0,
1Z
1]
1f
1g
1=
1(
#240000
b0 !
b0 "
0I
0D
1,
0Z
0]
0f
0g
0=
0(
#250000
b1 !
b101 !
b1000 "
1N
1[
1F
0,
1f
1`
1^
17
1g
1a
1=
1;
1(
1&
#350000
b100 !
b0 !
b0 "
0N
0[
0F
1,
0f
0`
0^
07
0g
0a
0=
0;
0(
0&
#360000
b10 "
b11 "
b1000 !
b1010 !
b111 "
b1011 !
b1111 !
b1111 "
1[
1D
1F
1M
1C
1A
1I
1N
0,
1j
1f
1^
1\
1X
17
16
1c
1Z
1`
1J
1G
1U
1R
1B
15
13
1l
1k
14
1Y
1E
1K
1H
03
1S
1@
1?
1+
1*
0k
1g
1i
1d
1V
13
0R
1L
0`
0S
1T
0?
1=
1>
1<
1:
0*
1(
1)
1'
1%
0i
1]
1S
1O
0T
0>
0)
0f
1b
1_
1T
1Q
0V
19
0:
1$
0%
0g
0d
1a
1V
0=
0<
1;
1:
0(
0'
1&
1%
#440000
b0 #
b1101 "
b1100 "
b111 !
b101 !
b1000 "
b100 !
b0 !
b0 "
0[
0D
0F
0M
0C
0A
0I
0N
0P
1,
0j
0b
0^
0\
0X
07
06
0c
0Z
0E
1h
1`
0J
0G
0U
0S
1R
0B
05
03
0l
1k
0a
0V
0Q
0_
0]
04
0Y
0h
0H
0T
1S
0`
0L
0@
1?
0;
0:
09
0+
1*
0&
0%
0$
0k
1i
0K
0O
0?
1>
0*
1)
0i
0R
0>
0)
0S
