lab11/FSM_elevador/simulation/qsim/FSM_elevador.msim.vcd
$comment
	File created using the following command:
		vcd file FSM_elevador.msim.vcd -direction
$end
$date
	Thu Jul 10 15:24:27 2025
$end
$version
	ModelSim Version 10.1d
$end
$timescale
	1ps
$end
$scope module FSM_elevador_vlg_vec_tst $end
$var reg 1 ! botao_descer $end
$var reg 1 " botao_subir $end
$var reg 1 # clk_in $end
$var reg 1 $ rst $end
$var wire 1 % acao [3] $end
$var wire 1 & acao [2] $end
$var wire 1 ' acao [1] $end
$var wire 1 ( acao [0] $end
$var wire 1 ) andar [3] $end
$var wire 1 * andar [2] $end
$var wire 1 + andar [1] $end
$var wire 1 , andar [0] $end
$var wire 1 - disp_A1 $end
$var wire 1 . disp_B1 $end
$var wire 1 / disp_C1 $end
$var wire 1 0 disp_D1 $end
$var wire 1 1 disp_E1 $end
$var wire 1 2 disp_F1 $end
$var wire 1 3 disp_G1 $end
$var wire 1 4 dispPC1_A $end
$var wire 1 5 dispPC1_B $end
$var wire 1 6 dispPC1_C $end
$var wire 1 7 dispPC1_D $end
$var wire 1 8 dispPC1_E $end
$var wire 1 9 dispPC1_F $end
$var wire 1 : dispPC1_G $end
$var wire 1 ; rst_descer $end
$var wire 1 < rst_subir $end
$var wire 1 = sampler $end
$scope module i1 $end
$var wire 1 > gnd $end
$var wire 1 ? vcc $end
$var wire 1 @ unknown $end
$var tri1 1 A devclrn $end
$var tri1 1 B devpor $end
$var tri1 1 C devoe $end
$var wire 1 D disp_D1~output_o $end
$var wire 1 E andar[3]~output_o $end
$var wire 1 F andar[2]~output_o $end
$var wire 1 G andar[1]~output_o $end
$var wire 1 H andar[0]~output_o $end
$var wire 1 I rst_subir~output_o $end
$var wire 1 J rst_descer~output_o $end
$var wire 1 K disp_A1~output_o $end
$var wire 1 L disp_E1~output_o $end
$var wire 1 M disp_B1~output_o $end
$var wire 1 N disp_C1~output_o $end
$var wire 1 O disp_F1~output_o $end
$var wire 1 P disp_G1~output_o $end
$var wire 1 Q dispPC1_D~output_o $end
$var wire 1 R acao[3]~output_o $end
$var wire 1 S acao[2]~output_o $end
$var wire 1 T acao[1]~output_o $end
$var wire 1 U acao[0]~output_o $end
$var wire 1 V dispPC1_A~output_o $end
$var wire 1 W dispPC1_E~output_o $end
$var wire 1 X dispPC1_B~output_o $end
$var wire 1 Y dispPC1_C~output_o $end
$var wire 1 Z dispPC1_F~output_o $end
$var wire 1 [ dispPC1_G~output_o $end
$var wire 1 \ clk_in~input_o $end
$var wire 1 ] clk_in~inputclkctrl_outclk $end
$var wire 1 ^ botao_descer~input_o $end
$var wire 1 _ inst|inst2~0_combout $end
$var wire 1 ` inst24|inst2~1_combout $end
$var wire 1 a inst|inst2~q $end
$var wire 1 b botao_subir~input_o $end
$var wire 1 c inst|inst~0_combout $end
$var wire 1 d inst24|inst2~0_combout $end
$var wire 1 e inst|inst~q $end
$var wire 1 f inst24|inst4~0_combout $end
$var wire 1 g rst~input_o $end
$var wire 1 h inst24|inst20|inst~q $end
$var wire 1 i inst24|inst20|inst2~feeder_combout $end
$var wire 1 j inst24|inst20|inst2~q $end
$var wire 1 k inst9|inst7|inst7~combout $end
$var wire 1 l inst24|inst2~2_combout $end
$var wire 1 m inst25|inst9~0_combout $end
$upscope $end
$upscope $end
$enddefinitions $end
#0
$dumpvars
0!
0"
0#
1$
1(
0'
1&
1%
0,
0+
0*
0)
0-
0.
0/
00
01
02
13
14
05
06
07
08
19
0:
0;
1<
x=
0>
1?
x@
1A
1B
1C
0D
0E
0F
0G
0H
1I
0J
0K
0L
0M
0N
0O
1P
0Q
1R
1S
0T
1U
1V
0W
0X
0Y
1Z
0[
0\
0]
0^
0_
0`
0a
0b
0c
0d
0e
0f
1g
0h
0i
0j
1k
0l
0m
$end
#20000
1#
1\
1]
0=
#40000
0#
0\
0]
1=
#60000
1#
1\
1]
0=
#80000
0#
0\
0]
1=
#90000
1"
1b
0=
1c
#100000
1#
1\
1]
1=
1e
1f
#120000
0#
0\
0]
0=
#130000
0"
0b
1=
#140000
1#
1\
1]
0=
1h
1i
1m
1l
1`
1T
1Y
1J
0S
0U
0V
0R
1'
16
1;
0&
0(
04
0%
#160000
0#
0\
0]
1=
#180000
1#
1\
1]
0=
1j
1d
1O
1L
1K
1H
1D
12
11
1-
1,
10
0m
0l
0I
0T
0Y
1S
1U
1V
1R
0<
0'
06
1&
1(
14
1%
0e
0c
#200000
0#
0\
0]
1=
#220000
1#
1\
1]
0=
#240000
0#
0\
0]
1=
#260000
1!
1#
1^
1\
1]
0=
1_
#280000
0#
0\
0]
1=
#300000
1#
1\
1]
0=
1a
0f
#320000
0#
0\
0]
1=
#340000
1#
1\
1]
0=
0h
0i
0d
1m
0k
1I
1T
0Z
0S
0U
0V
1Q
1<
1'
09
0&
0(
04
17
#360000
0#
0\
0]
1=
#380000
1#
1\
1]
0=
0j
0O
0L
0K
0H
0D
02
01
0-
0,
00
0m
1k
0`
0T
1Z
0J
1S
1U
1V
0Q
0'
19
0;
1&
1(
14
07
0a
#400000
0#
0\
0]
1=
#420000
1#
1\
1]
0=
#430000
0!
0^
1=
0_
#440000
0#
0\
0]
0=
#460000
1#
1\
1]
1=
#480000
0#
0\
0]
0=
#500000
1#
1\
1]
1=
#520000
0#
0\
0]
0=
#540000
1#
1\
1]
1=
#560000
0#
0\
0]
0=
#580000
1#
1\
1]
1=
#600000
0#
0\
0]
0=
#620000
1#
1\
1]
1=
#640000
0#
0\
0]
0=
#660000
1#
1\
1]
1=
#680000
0#
0\
0]
0=
#700000
1#
1\
1]
1=
#720000
0#
0\
0]
0=
#740000
1#
1\
1]
1=
#760000
0#
0\
0]
0=
#780000
1#
1\
1]
1=
#800000
0#
0\
0]
0=
#820000
1#
1\
1]
1=
#840000
0#
0\
0]
0=
#860000
1#
1\
1]
1=
#880000
0#
0\
0]
0=
#900000
1#
1\
1]
1=
#920000
0#
0\
0]
0=
#940000
1#
1\
1]
1=
#960000
0#
0\
0]
0=
#980000
1#
1\
1]
1=
